{
  "changes": [
    {
      "description": "Update bitbucket-pipes-toolkit to fix vulnerability with certify.",
      "type": "minor"
    }
  ],
  "created_at": "2023-08-10T18:38:17.626280+00:00",
  "version": "0.4.0"
}