{
  "changes": [
    {
      "description": "Bump bitbucket-pipes-toolkit to fix vulnerabilities.",
      "type": "minor"
    }
  ],
  "created_at": "2023-09-12T15:42:19.055974+00:00",
  "version": "0.5.0"
}